{
	"info": {
		"_postman_id": "665048c3-1a1a-4abb-b7d9-82a558b21a7b",
		"name": "openweathermap",
		"schema": "https://schema.getpostman.com/json/collection/v2.1.0/collection.json",
		"_exporter_id": "138194"
	},
	"item": [
		{
			"name": "GetWeather",
			"event": [
				{
					"listen": "test",
					"script": {
						"exec": [
							"// @allure.label.story=Get Weather Data\r",
							"\r",
							"pm.test(\"Status code is 200\", function () {\r",
							"  pm.response.to.be.ok;\r",
							"});"
						],
						"type": "text/javascript"
					}
				}
			],
			"protocolProfileBehavior": {
				"disableBodyPruning": true
			},
			"request": {
				"method": "GET",
				"header": [
					{
						"key": "Content-Type",
						"name": "Content-Type",
						"value": "application/json",
						"type": "text"
					}
				],
				"body": {
					"mode": "raw",
					"raw": ""
				},
				"url": {
					"raw": "https://api.openweathermap.org/data/2.5/weather?q=London&appid={{apikey}}",
					"protocol": "https",
					"host": [
						"api",
						"openweathermap",
						"org"
					],
					"path": [
						"data",
						"2.5",
						"weather"
					],
					"query": [
						{
							"key": "q",
							"value": "London"
						},
						{
							"key": "appid",
							"value": "{{apikey}}"
						}
					]
				}
			},
			"response": []
		}
	]
}